.......
----------------------------------------------------------------------
Ran 7 tests in 0.001s

OK
Name               Stmts   Miss Branch BrPart  Cover   Missing
--------------------------------------------------------------
Diplomacy.py         101      0     44      0   100%
TestDiplomacy.py      32      0      0      0   100%
--------------------------------------------------------------
TOTAL                133      0     44      0   100%
