............
----------------------------------------------------------------------
Ran 12 tests in 0.001s

OK
Name               Stmts   Miss Branch BrPart  Cover   Missing
--------------------------------------------------------------
Diplomacy.py          35      0     22      1    98%   92->97
TestDiplomacy.py      63      0      0      0   100%
--------------------------------------------------------------
TOTAL                 98      0     22      1    99%
